%YAML 1.1
%TAG !u! tag:unity3d.com,2011:
--- !u!54 &985576025
Rigidbody:
  m_ObjectHideFlags: 0
  m_CorrespondingSourceObject: {fileID: 0}
  m_PrefabInstance: {fileID: 0}
  m_PrefabAsset: {fileID: 0}
  m_GameObject: {fileID: 5315593489823488646}
  serializedVersion: 2
  m_Mass: 1
  m_Drag: 0
  m_AngularDrag: 0.05
  m_UseGravity: 1
  m_IsKinematic: 0
  m_Interpolate: 0
  m_Constraints: 112
  m_CollisionDetection: 0
--- !u!136 &985576026
CapsuleCollider:
  m_ObjectHideFlags: 0
  m_CorrespondingSourceObject: {fileID: 0}
  m_PrefabInstance: {fileID: 0}
  m_PrefabAsset: {fileID: 0}
  m_GameObject: {fileID: 5315593489823488646}
  m_Material: {fileID: 0}
  m_IsTrigger: 0
  m_Enabled: 1
  m_Radius: 0.17076874
  m_Height: 1.529654
  m_Direction: 1
  m_Center: {x: 0, y: 0.77312016, z: -0.010810852}
--- !u!114 &985576027
MonoBehaviour:
  m_ObjectHideFlags: 0
  m_CorrespondingSourceObject: {fileID: 0}
  m_PrefabInstance: {fileID: 0}
  m_PrefabAsset: {fileID: 0}
  m_GameObject: {fileID: 5315593489823488646}
  m_Enabled: 1
  m_EditorHideFlags: 0
  m_Script: {fileID: 11500000, guid: 4171ead1f41de0541819b37839d59116, type: 3}
  m_Name: 
  m_EditorClassIdentifier: 
--- !u!136 &1902757793
CapsuleCollider:
  m_ObjectHideFlags: 0
  m_CorrespondingSourceObject: {fileID: 0}
  m_PrefabInstance: {fileID: 0}
  m_PrefabAsset: {fileID: 0}
  m_GameObject: {fileID: 5315593489823488898}
  m_Material: {fileID: 0}
  m_IsTrigger: 0
  m_Enabled: 0
  m_Radius: 0.1288147
  m_Height: 0.2576294
  m_Direction: 1
  m_Center: {x: 0, y: 0.6931217, z: 0}
--- !u!1001 &5315593489823522144
PrefabInstance:
  m_ObjectHideFlags: 0
  serializedVersion: 2
  m_Modification:
    m_TransformParent: {fileID: 0}
    m_Modifications:
    - target: {fileID: 100000, guid: 8f0565f23a2b58541a475bd3c1393052, type: 3}
      propertyPath: m_Layer
      value: 9
      objectReference: {fileID: 0}
    - target: {fileID: 100002, guid: 8f0565f23a2b58541a475bd3c1393052, type: 3}
      propertyPath: m_Layer
      value: 9
      objectReference: {fileID: 0}
    - target: {fileID: 100004, guid: 8f0565f23a2b58541a475bd3c1393052, type: 3}
      propertyPath: m_Layer
      value: 9
      objectReference: {fileID: 0}
    - target: {fileID: 100006, guid: 8f0565f23a2b58541a475bd3c1393052, type: 3}
      propertyPath: m_Layer
      value: 9
      objectReference: {fileID: 0}
    - target: {fileID: 100008, guid: 8f0565f23a2b58541a475bd3c1393052, type: 3}
      propertyPath: m_Layer
      value: 9
      objectReference: {fileID: 0}
    - target: {fileID: 100010, guid: 8f0565f23a2b58541a475bd3c1393052, type: 3}
      propertyPath: m_Layer
      value: 9
      objectReference: {fileID: 0}
    - target: {fileID: 100012, guid: 8f0565f23a2b58541a475bd3c1393052, type: 3}
      propertyPath: m_Layer
      value: 9
      objectReference: {fileID: 0}
    - target: {fileID: 100014, guid: 8f0565f23a2b58541a475bd3c1393052, type: 3}
      propertyPath: m_Layer
      value: 9
      objectReference: {fileID: 0}
    - target: {fileID: 100016, guid: 8f0565f23a2b58541a475bd3c1393052, type: 3}
      propertyPath: m_Layer
      value: 9
      objectReference: {fileID: 0}
    - target: {fileID: 100018, guid: 8f0565f23a2b58541a475bd3c1393052, type: 3}
      propertyPath: m_Layer
      value: 9
      objectReference: {fileID: 0}
    - target: {fileID: 100020, guid: 8f0565f23a2b58541a475bd3c1393052, type: 3}
      propertyPath: m_Layer
      value: 9
      objectReference: {fileID: 0}
    - target: {fileID: 100022, guid: 8f0565f23a2b58541a475bd3c1393052, type: 3}
      propertyPath: m_Layer
      value: 9
      objectReference: {fileID: 0}
    - target: {fileID: 100024, guid: 8f0565f23a2b58541a475bd3c1393052, type: 3}
      propertyPath: m_Layer
      value: 9
      objectReference: {fileID: 0}
    - target: {fileID: 100026, guid: 8f0565f23a2b58541a475bd3c1393052, type: 3}
      propertyPath: m_Layer
      value: 9
      objectReference: {fileID: 0}
    - target: {fileID: 100028, guid: 8f0565f23a2b58541a475bd3c1393052, type: 3}
      propertyPath: m_Layer
      value: 9
      objectReference: {fileID: 0}
    - target: {fileID: 100030, guid: 8f0565f23a2b58541a475bd3c1393052, type: 3}
      propertyPath: m_Layer
      value: 9
      objectReference: {fileID: 0}
    - target: {fileID: 100032, guid: 8f0565f23a2b58541a475bd3c1393052, type: 3}
      propertyPath: m_Layer
      value: 9
      objectReference: {fileID: 0}
    - target: {fileID: 100034, guid: 8f0565f23a2b58541a475bd3c1393052, type: 3}
      propertyPath: m_Layer
      value: 9
      objectReference: {fileID: 0}
    - target: {fileID: 100036, guid: 8f0565f23a2b58541a475bd3c1393052, type: 3}
      propertyPath: m_Layer
      value: 9
      objectReference: {fileID: 0}
    - target: {fileID: 100038, guid: 8f0565f23a2b58541a475bd3c1393052, type: 3}
      propertyPath: m_Layer
      value: 9
      objectReference: {fileID: 0}
    - target: {fileID: 100040, guid: 8f0565f23a2b58541a475bd3c1393052, type: 3}
      propertyPath: m_Layer
      value: 9
      objectReference: {fileID: 0}
    - target: {fileID: 100042, guid: 8f0565f23a2b58541a475bd3c1393052, type: 3}
      propertyPath: m_Layer
      value: 9
      objectReference: {fileID: 0}
    - target: {fileID: 100044, guid: 8f0565f23a2b58541a475bd3c1393052, type: 3}
      propertyPath: m_Layer
      value: 9
      objectReference: {fileID: 0}
    - target: {fileID: 100046, guid: 8f0565f23a2b58541a475bd3c1393052, type: 3}
      propertyPath: m_Layer
      value: 9
      objectReference: {fileID: 0}
    - target: {fileID: 100048, guid: 8f0565f23a2b58541a475bd3c1393052, type: 3}
      propertyPath: m_Layer
      value: 9
      objectReference: {fileID: 0}
    - target: {fileID: 100050, guid: 8f0565f23a2b58541a475bd3c1393052, type: 3}
      propertyPath: m_Layer
      value: 9
      objectReference: {fileID: 0}
    - target: {fileID: 100052, guid: 8f0565f23a2b58541a475bd3c1393052, type: 3}
      propertyPath: m_Layer
      value: 9
      objectReference: {fileID: 0}
    - target: {fileID: 100054, guid: 8f0565f23a2b58541a475bd3c1393052, type: 3}
      propertyPath: m_Layer
      value: 9
      objectReference: {fileID: 0}
    - target: {fileID: 100056, guid: 8f0565f23a2b58541a475bd3c1393052, type: 3}
      propertyPath: m_Layer
      value: 9
      objectReference: {fileID: 0}
    - target: {fileID: 100058, guid: 8f0565f23a2b58541a475bd3c1393052, type: 3}
      propertyPath: m_Layer
      value: 9
      objectReference: {fileID: 0}
    - target: {fileID: 100060, guid: 8f0565f23a2b58541a475bd3c1393052, type: 3}
      propertyPath: m_Layer
      value: 9
      objectReference: {fileID: 0}
    - target: {fileID: 100062, guid: 8f0565f23a2b58541a475bd3c1393052, type: 3}
      propertyPath: m_Layer
      value: 9
      objectReference: {fileID: 0}
    - target: {fileID: 100064, guid: 8f0565f23a2b58541a475bd3c1393052, type: 3}
      propertyPath: m_Layer
      value: 9
      objectReference: {fileID: 0}
    - target: {fileID: 100066, guid: 8f0565f23a2b58541a475bd3c1393052, type: 3}
      propertyPath: m_Layer
      value: 9
      objectReference: {fileID: 0}
    - target: {fileID: 100068, guid: 8f0565f23a2b58541a475bd3c1393052, type: 3}
      propertyPath: m_Layer
      value: 9
      objectReference: {fileID: 0}
    - target: {fileID: 100070, guid: 8f0565f23a2b58541a475bd3c1393052, type: 3}
      propertyPath: m_Layer
      value: 9
      objectReference: {fileID: 0}
    - target: {fileID: 100072, guid: 8f0565f23a2b58541a475bd3c1393052, type: 3}
      propertyPath: m_Layer
      value: 9
      objectReference: {fileID: 0}
    - target: {fileID: 100074, guid: 8f0565f23a2b58541a475bd3c1393052, type: 3}
      propertyPath: m_Layer
      value: 9
      objectReference: {fileID: 0}
    - target: {fileID: 100076, guid: 8f0565f23a2b58541a475bd3c1393052, type: 3}
      propertyPath: m_Layer
      value: 9
      objectReference: {fileID: 0}
    - target: {fileID: 100078, guid: 8f0565f23a2b58541a475bd3c1393052, type: 3}
      propertyPath: m_Layer
      value: 9
      objectReference: {fileID: 0}
    - target: {fileID: 100080, guid: 8f0565f23a2b58541a475bd3c1393052, type: 3}
      propertyPath: m_Layer
      value: 9
      objectReference: {fileID: 0}
    - target: {fileID: 100082, guid: 8f0565f23a2b58541a475bd3c1393052, type: 3}
      propertyPath: m_Layer
      value: 9
      objectReference: {fileID: 0}
    - target: {fileID: 100084, guid: 8f0565f23a2b58541a475bd3c1393052, type: 3}
      propertyPath: m_Layer
      value: 9
      objectReference: {fileID: 0}
    - target: {fileID: 100086, guid: 8f0565f23a2b58541a475bd3c1393052, type: 3}
      propertyPath: m_Layer
      value: 9
      objectReference: {fileID: 0}
    - target: {fileID: 100088, guid: 8f0565f23a2b58541a475bd3c1393052, type: 3}
      propertyPath: m_Layer
      value: 9
      objectReference: {fileID: 0}
    - target: {fileID: 100090, guid: 8f0565f23a2b58541a475bd3c1393052, type: 3}
      propertyPath: m_Layer
      value: 9
      objectReference: {fileID: 0}
    - target: {fileID: 100092, guid: 8f0565f23a2b58541a475bd3c1393052, type: 3}
      propertyPath: m_Layer
      value: 9
      objectReference: {fileID: 0}
    - target: {fileID: 100094, guid: 8f0565f23a2b58541a475bd3c1393052, type: 3}
      propertyPath: m_Layer
      value: 9
      objectReference: {fileID: 0}
    - target: {fileID: 100096, guid: 8f0565f23a2b58541a475bd3c1393052, type: 3}
      propertyPath: m_Layer
      value: 9
      objectReference: {fileID: 0}
    - target: {fileID: 100098, guid: 8f0565f23a2b58541a475bd3c1393052, type: 3}
      propertyPath: m_Layer
      value: 9
      objectReference: {fileID: 0}
    - target: {fileID: 100100, guid: 8f0565f23a2b58541a475bd3c1393052, type: 3}
      propertyPath: m_Layer
      value: 9
      objectReference: {fileID: 0}
    - target: {fileID: 100102, guid: 8f0565f23a2b58541a475bd3c1393052, type: 3}
      propertyPath: m_Layer
      value: 9
      objectReference: {fileID: 0}
    - target: {fileID: 100104, guid: 8f0565f23a2b58541a475bd3c1393052, type: 3}
      propertyPath: m_Layer
      value: 9
      objectReference: {fileID: 0}
    - target: {fileID: 100106, guid: 8f0565f23a2b58541a475bd3c1393052, type: 3}
      propertyPath: m_Layer
      value: 9
      objectReference: {fileID: 0}
    - target: {fileID: 100108, guid: 8f0565f23a2b58541a475bd3c1393052, type: 3}
      propertyPath: m_Layer
      value: 9
      objectReference: {fileID: 0}
    - target: {fileID: 100110, guid: 8f0565f23a2b58541a475bd3c1393052, type: 3}
      propertyPath: m_Layer
      value: 9
      objectReference: {fileID: 0}
    - target: {fileID: 100112, guid: 8f0565f23a2b58541a475bd3c1393052, type: 3}
      propertyPath: m_Layer
      value: 9
      objectReference: {fileID: 0}
    - target: {fileID: 100114, guid: 8f0565f23a2b58541a475bd3c1393052, type: 3}
      propertyPath: m_Layer
      value: 9
      objectReference: {fileID: 0}
    - target: {fileID: 100116, guid: 8f0565f23a2b58541a475bd3c1393052, type: 3}
      propertyPath: m_Layer
      value: 9
      objectReference: {fileID: 0}
    - target: {fileID: 100118, guid: 8f0565f23a2b58541a475bd3c1393052, type: 3}
      propertyPath: m_Layer
      value: 9
      objectReference: {fileID: 0}
    - target: {fileID: 100120, guid: 8f0565f23a2b58541a475bd3c1393052, type: 3}
      propertyPath: m_Layer
      value: 9
      objectReference: {fileID: 0}
    - target: {fileID: 100122, guid: 8f0565f23a2b58541a475bd3c1393052, type: 3}
      propertyPath: m_Layer
      value: 9
      objectReference: {fileID: 0}
    - target: {fileID: 100124, guid: 8f0565f23a2b58541a475bd3c1393052, type: 3}
      propertyPath: m_Layer
      value: 9
      objectReference: {fileID: 0}
    - target: {fileID: 100126, guid: 8f0565f23a2b58541a475bd3c1393052, type: 3}
      propertyPath: m_Layer
      value: 9
      objectReference: {fileID: 0}
    - target: {fileID: 100128, guid: 8f0565f23a2b58541a475bd3c1393052, type: 3}
      propertyPath: m_Layer
      value: 9
      objectReference: {fileID: 0}
    - target: {fileID: 100130, guid: 8f0565f23a2b58541a475bd3c1393052, type: 3}
      propertyPath: m_Layer
      value: 9
      objectReference: {fileID: 0}
    - target: {fileID: 100132, guid: 8f0565f23a2b58541a475bd3c1393052, type: 3}
      propertyPath: m_Layer
      value: 9
      objectReference: {fileID: 0}
    - target: {fileID: 100134, guid: 8f0565f23a2b58541a475bd3c1393052, type: 3}
      propertyPath: m_Layer
      value: 9
      objectReference: {fileID: 0}
    - target: {fileID: 100136, guid: 8f0565f23a2b58541a475bd3c1393052, type: 3}
      propertyPath: m_Layer
      value: 9
      objectReference: {fileID: 0}
    - target: {fileID: 100138, guid: 8f0565f23a2b58541a475bd3c1393052, type: 3}
      propertyPath: m_Layer
      value: 9
      objectReference: {fileID: 0}
    - target: {fileID: 100140, guid: 8f0565f23a2b58541a475bd3c1393052, type: 3}
      propertyPath: m_Layer
      value: 9
      objectReference: {fileID: 0}
    - target: {fileID: 100142, guid: 8f0565f23a2b58541a475bd3c1393052, type: 3}
      propertyPath: m_Layer
      value: 9
      objectReference: {fileID: 0}
    - target: {fileID: 100144, guid: 8f0565f23a2b58541a475bd3c1393052, type: 3}
      propertyPath: m_Layer
      value: 9
      objectReference: {fileID: 0}
    - target: {fileID: 100146, guid: 8f0565f23a2b58541a475bd3c1393052, type: 3}
      propertyPath: m_Layer
      value: 9
      objectReference: {fileID: 0}
    - target: {fileID: 100148, guid: 8f0565f23a2b58541a475bd3c1393052, type: 3}
      propertyPath: m_Layer
      value: 9
      objectReference: {fileID: 0}
    - target: {fileID: 100150, guid: 8f0565f23a2b58541a475bd3c1393052, type: 3}
      propertyPath: m_Layer
      value: 9
      objectReference: {fileID: 0}
    - target: {fileID: 100152, guid: 8f0565f23a2b58541a475bd3c1393052, type: 3}
      propertyPath: m_Layer
      value: 9
      objectReference: {fileID: 0}
    - target: {fileID: 100154, guid: 8f0565f23a2b58541a475bd3c1393052, type: 3}
      propertyPath: m_Layer
      value: 9
      objectReference: {fileID: 0}
    - target: {fileID: 100156, guid: 8f0565f23a2b58541a475bd3c1393052, type: 3}
      propertyPath: m_Layer
      value: 9
      objectReference: {fileID: 0}
    - target: {fileID: 100158, guid: 8f0565f23a2b58541a475bd3c1393052, type: 3}
      propertyPath: m_Layer
      value: 9
      objectReference: {fileID: 0}
    - target: {fileID: 100160, guid: 8f0565f23a2b58541a475bd3c1393052, type: 3}
      propertyPath: m_Layer
      value: 9
      objectReference: {fileID: 0}
    - target: {fileID: 100162, guid: 8f0565f23a2b58541a475bd3c1393052, type: 3}
      propertyPath: m_Layer
      value: 9
      objectReference: {fileID: 0}
    - target: {fileID: 100164, guid: 8f0565f23a2b58541a475bd3c1393052, type: 3}
      propertyPath: m_Layer
      value: 9
      objectReference: {fileID: 0}
    - target: {fileID: 100166, guid: 8f0565f23a2b58541a475bd3c1393052, type: 3}
      propertyPath: m_Layer
      value: 9
      objectReference: {fileID: 0}
    - target: {fileID: 100168, guid: 8f0565f23a2b58541a475bd3c1393052, type: 3}
      propertyPath: m_Layer
      value: 9
      objectReference: {fileID: 0}
    - target: {fileID: 100170, guid: 8f0565f23a2b58541a475bd3c1393052, type: 3}
      propertyPath: m_Layer
      value: 9
      objectReference: {fileID: 0}
    - target: {fileID: 100172, guid: 8f0565f23a2b58541a475bd3c1393052, type: 3}
      propertyPath: m_Layer
      value: 9
      objectReference: {fileID: 0}
    - target: {fileID: 100174, guid: 8f0565f23a2b58541a475bd3c1393052, type: 3}
      propertyPath: m_Layer
      value: 9
      objectReference: {fileID: 0}
    - target: {fileID: 100176, guid: 8f0565f23a2b58541a475bd3c1393052, type: 3}
      propertyPath: m_Layer
      value: 9
      objectReference: {fileID: 0}
    - target: {fileID: 100178, guid: 8f0565f23a2b58541a475bd3c1393052, type: 3}
      propertyPath: m_Layer
      value: 9
      objectReference: {fileID: 0}
    - target: {fileID: 100180, guid: 8f0565f23a2b58541a475bd3c1393052, type: 3}
      propertyPath: m_Layer
      value: 9
      objectReference: {fileID: 0}
    - target: {fileID: 100182, guid: 8f0565f23a2b58541a475bd3c1393052, type: 3}
      propertyPath: m_Layer
      value: 9
      objectReference: {fileID: 0}
    - target: {fileID: 100184, guid: 8f0565f23a2b58541a475bd3c1393052, type: 3}
      propertyPath: m_Layer
      value: 9
      objectReference: {fileID: 0}
    - target: {fileID: 100186, guid: 8f0565f23a2b58541a475bd3c1393052, type: 3}
      propertyPath: m_Layer
      value: 9
      objectReference: {fileID: 0}
    - target: {fileID: 100188, guid: 8f0565f23a2b58541a475bd3c1393052, type: 3}
      propertyPath: m_Layer
      value: 9
      objectReference: {fileID: 0}
    - target: {fileID: 100190, guid: 8f0565f23a2b58541a475bd3c1393052, type: 3}
      propertyPath: m_Layer
      value: 9
      objectReference: {fileID: 0}
    - target: {fileID: 100192, guid: 8f0565f23a2b58541a475bd3c1393052, type: 3}
      propertyPath: m_Layer
      value: 9
      objectReference: {fileID: 0}
    - target: {fileID: 100194, guid: 8f0565f23a2b58541a475bd3c1393052, type: 3}
      propertyPath: m_Layer
      value: 9
      objectReference: {fileID: 0}
    - target: {fileID: 100196, guid: 8f0565f23a2b58541a475bd3c1393052, type: 3}
      propertyPath: m_Layer
      value: 9
      objectReference: {fileID: 0}
    - target: {fileID: 100198, guid: 8f0565f23a2b58541a475bd3c1393052, type: 3}
      propertyPath: m_Layer
      value: 9
      objectReference: {fileID: 0}
    - target: {fileID: 100200, guid: 8f0565f23a2b58541a475bd3c1393052, type: 3}
      propertyPath: m_Layer
      value: 9
      objectReference: {fileID: 0}
    - target: {fileID: 100202, guid: 8f0565f23a2b58541a475bd3c1393052, type: 3}
      propertyPath: m_Layer
      value: 9
      objectReference: {fileID: 0}
    - target: {fileID: 100204, guid: 8f0565f23a2b58541a475bd3c1393052, type: 3}
      propertyPath: m_Layer
      value: 9
      objectReference: {fileID: 0}
    - target: {fileID: 100206, guid: 8f0565f23a2b58541a475bd3c1393052, type: 3}
      propertyPath: m_Layer
      value: 9
      objectReference: {fileID: 0}
    - target: {fileID: 100208, guid: 8f0565f23a2b58541a475bd3c1393052, type: 3}
      propertyPath: m_Layer
      value: 9
      objectReference: {fileID: 0}
    - target: {fileID: 100210, guid: 8f0565f23a2b58541a475bd3c1393052, type: 3}
      propertyPath: m_Layer
      value: 9
      objectReference: {fileID: 0}
    - target: {fileID: 100212, guid: 8f0565f23a2b58541a475bd3c1393052, type: 3}
      propertyPath: m_Layer
      value: 9
      objectReference: {fileID: 0}
    - target: {fileID: 100214, guid: 8f0565f23a2b58541a475bd3c1393052, type: 3}
      propertyPath: m_Layer
      value: 9
      objectReference: {fileID: 0}
    - target: {fileID: 100216, guid: 8f0565f23a2b58541a475bd3c1393052, type: 3}
      propertyPath: m_Layer
      value: 9
      objectReference: {fileID: 0}
    - target: {fileID: 100218, guid: 8f0565f23a2b58541a475bd3c1393052, type: 3}
      propertyPath: m_Layer
      value: 9
      objectReference: {fileID: 0}
    - target: {fileID: 100220, guid: 8f0565f23a2b58541a475bd3c1393052, type: 3}
      propertyPath: m_Layer
      value: 9
      objectReference: {fileID: 0}
    - target: {fileID: 100222, guid: 8f0565f23a2b58541a475bd3c1393052, type: 3}
      propertyPath: m_Layer
      value: 9
      objectReference: {fileID: 0}
    - target: {fileID: 100224, guid: 8f0565f23a2b58541a475bd3c1393052, type: 3}
      propertyPath: m_Layer
      value: 9
      objectReference: {fileID: 0}
    - target: {fileID: 100226, guid: 8f0565f23a2b58541a475bd3c1393052, type: 3}
      propertyPath: m_Layer
      value: 9
      objectReference: {fileID: 0}
    - target: {fileID: 100228, guid: 8f0565f23a2b58541a475bd3c1393052, type: 3}
      propertyPath: m_Layer
      value: 9
      objectReference: {fileID: 0}
    - target: {fileID: 100230, guid: 8f0565f23a2b58541a475bd3c1393052, type: 3}
      propertyPath: m_Layer
      value: 9
      objectReference: {fileID: 0}
    - target: {fileID: 100232, guid: 8f0565f23a2b58541a475bd3c1393052, type: 3}
      propertyPath: m_Layer
      value: 9
      objectReference: {fileID: 0}
    - target: {fileID: 100234, guid: 8f0565f23a2b58541a475bd3c1393052, type: 3}
      propertyPath: m_Layer
      value: 9
      objectReference: {fileID: 0}
    - target: {fileID: 100236, guid: 8f0565f23a2b58541a475bd3c1393052, type: 3}
      propertyPath: m_Layer
      value: 9
      objectReference: {fileID: 0}
    - target: {fileID: 100238, guid: 8f0565f23a2b58541a475bd3c1393052, type: 3}
      propertyPath: m_Layer
      value: 9
      objectReference: {fileID: 0}
    - target: {fileID: 100240, guid: 8f0565f23a2b58541a475bd3c1393052, type: 3}
      propertyPath: m_Layer
      value: 9
      objectReference: {fileID: 0}
    - target: {fileID: 100242, guid: 8f0565f23a2b58541a475bd3c1393052, type: 3}
      propertyPath: m_Layer
      value: 9
      objectReference: {fileID: 0}
    - target: {fileID: 100244, guid: 8f0565f23a2b58541a475bd3c1393052, type: 3}
      propertyPath: m_Layer
      value: 9
      objectReference: {fileID: 0}
    - target: {fileID: 100246, guid: 8f0565f23a2b58541a475bd3c1393052, type: 3}
      propertyPath: m_Layer
      value: 9
      objectReference: {fileID: 0}
    - target: {fileID: 100248, guid: 8f0565f23a2b58541a475bd3c1393052, type: 3}
      propertyPath: m_Layer
      value: 9
      objectReference: {fileID: 0}
    - target: {fileID: 100250, guid: 8f0565f23a2b58541a475bd3c1393052, type: 3}
      propertyPath: m_Layer
      value: 9
      objectReference: {fileID: 0}
    - target: {fileID: 100252, guid: 8f0565f23a2b58541a475bd3c1393052, type: 3}
      propertyPath: m_Layer
      value: 9
      objectReference: {fileID: 0}
    - target: {fileID: 100254, guid: 8f0565f23a2b58541a475bd3c1393052, type: 3}
      propertyPath: m_Layer
      value: 9
      objectReference: {fileID: 0}
    - target: {fileID: 100256, guid: 8f0565f23a2b58541a475bd3c1393052, type: 3}
      propertyPath: m_Layer
      value: 9
      objectReference: {fileID: 0}
    - target: {fileID: 100258, guid: 8f0565f23a2b58541a475bd3c1393052, type: 3}
      propertyPath: m_Layer
      value: 9
      objectReference: {fileID: 0}
    - target: {fileID: 100260, guid: 8f0565f23a2b58541a475bd3c1393052, type: 3}
      propertyPath: m_Layer
      value: 9
      objectReference: {fileID: 0}
    - target: {fileID: 100262, guid: 8f0565f23a2b58541a475bd3c1393052, type: 3}
      propertyPath: m_Layer
      value: 9
      objectReference: {fileID: 0}
    - target: {fileID: 100264, guid: 8f0565f23a2b58541a475bd3c1393052, type: 3}
      propertyPath: m_Layer
      value: 9
      objectReference: {fileID: 0}
    - target: {fileID: 100266, guid: 8f0565f23a2b58541a475bd3c1393052, type: 3}
      propertyPath: m_Layer
      value: 9
      objectReference: {fileID: 0}
    - target: {fileID: 100268, guid: 8f0565f23a2b58541a475bd3c1393052, type: 3}
      propertyPath: m_Layer
      value: 9
      objectReference: {fileID: 0}
    - target: {fileID: 100270, guid: 8f0565f23a2b58541a475bd3c1393052, type: 3}
      propertyPath: m_Layer
      value: 9
      objectReference: {fileID: 0}
    - target: {fileID: 100272, guid: 8f0565f23a2b58541a475bd3c1393052, type: 3}
      propertyPath: m_Layer
      value: 9
      objectReference: {fileID: 0}
    - target: {fileID: 100274, guid: 8f0565f23a2b58541a475bd3c1393052, type: 3}
      propertyPath: m_Layer
      value: 9
      objectReference: {fileID: 0}
    - target: {fileID: 100276, guid: 8f0565f23a2b58541a475bd3c1393052, type: 3}
      propertyPath: m_Layer
      value: 9
      objectReference: {fileID: 0}
    - target: {fileID: 100278, guid: 8f0565f23a2b58541a475bd3c1393052, type: 3}
      propertyPath: m_Layer
      value: 9
      objectReference: {fileID: 0}
    - target: {fileID: 100280, guid: 8f0565f23a2b58541a475bd3c1393052, type: 3}
      propertyPath: m_Layer
      value: 9
      objectReference: {fileID: 0}
    - target: {fileID: 100282, guid: 8f0565f23a2b58541a475bd3c1393052, type: 3}
      propertyPath: m_Layer
      value: 9
      objectReference: {fileID: 0}
    - target: {fileID: 100284, guid: 8f0565f23a2b58541a475bd3c1393052, type: 3}
      propertyPath: m_Layer
      value: 9
      objectReference: {fileID: 0}
    - target: {fileID: 100286, guid: 8f0565f23a2b58541a475bd3c1393052, type: 3}
      propertyPath: m_Layer
      value: 9
      objectReference: {fileID: 0}
    - target: {fileID: 100288, guid: 8f0565f23a2b58541a475bd3c1393052, type: 3}
      propertyPath: m_Layer
      value: 9
      objectReference: {fileID: 0}
    - target: {fileID: 100290, guid: 8f0565f23a2b58541a475bd3c1393052, type: 3}
      propertyPath: m_Layer
      value: 9
      objectReference: {fileID: 0}
    - target: {fileID: 100292, guid: 8f0565f23a2b58541a475bd3c1393052, type: 3}
      propertyPath: m_Layer
      value: 9
      objectReference: {fileID: 0}
    - target: {fileID: 100294, guid: 8f0565f23a2b58541a475bd3c1393052, type: 3}
      propertyPath: m_Layer
      value: 9
      objectReference: {fileID: 0}
    - target: {fileID: 100296, guid: 8f0565f23a2b58541a475bd3c1393052, type: 3}
      propertyPath: m_Layer
      value: 9
      objectReference: {fileID: 0}
    - target: {fileID: 100298, guid: 8f0565f23a2b58541a475bd3c1393052, type: 3}
      propertyPath: m_Layer
      value: 9
      objectReference: {fileID: 0}
    - target: {fileID: 100300, guid: 8f0565f23a2b58541a475bd3c1393052, type: 3}
      propertyPath: m_Layer
      value: 9
      objectReference: {fileID: 0}
    - target: {fileID: 100302, guid: 8f0565f23a2b58541a475bd3c1393052, type: 3}
      propertyPath: m_Layer
      value: 9
      objectReference: {fileID: 0}
    - target: {fileID: 100304, guid: 8f0565f23a2b58541a475bd3c1393052, type: 3}
      propertyPath: m_Layer
      value: 9
      objectReference: {fileID: 0}
    - target: {fileID: 100306, guid: 8f0565f23a2b58541a475bd3c1393052, type: 3}
      propertyPath: m_Layer
      value: 9
      objectReference: {fileID: 0}
    - target: {fileID: 100308, guid: 8f0565f23a2b58541a475bd3c1393052, type: 3}
      propertyPath: m_Layer
      value: 9
      objectReference: {fileID: 0}
    - target: {fileID: 100310, guid: 8f0565f23a2b58541a475bd3c1393052, type: 3}
      propertyPath: m_Layer
      value: 9
      objectReference: {fileID: 0}
    - target: {fileID: 100312, guid: 8f0565f23a2b58541a475bd3c1393052, type: 3}
      propertyPath: m_Layer
      value: 9
      objectReference: {fileID: 0}
    - target: {fileID: 100314, guid: 8f0565f23a2b58541a475bd3c1393052, type: 3}
      propertyPath: m_Layer
      value: 9
      objectReference: {fileID: 0}
    - target: {fileID: 100316, guid: 8f0565f23a2b58541a475bd3c1393052, type: 3}
      propertyPath: m_Layer
      value: 9
      objectReference: {fileID: 0}
    - target: {fileID: 100318, guid: 8f0565f23a2b58541a475bd3c1393052, type: 3}
      propertyPath: m_Layer
      value: 9
      objectReference: {fileID: 0}
    - target: {fileID: 100320, guid: 8f0565f23a2b58541a475bd3c1393052, type: 3}
      propertyPath: m_Layer
      value: 9
      objectReference: {fileID: 0}
    - target: {fileID: 100322, guid: 8f0565f23a2b58541a475bd3c1393052, type: 3}
      propertyPath: m_Layer
      value: 9
      objectReference: {fileID: 0}
    - target: {fileID: 100324, guid: 8f0565f23a2b58541a475bd3c1393052, type: 3}
      propertyPath: m_Layer
      value: 9
      objectReference: {fileID: 0}
    - target: {fileID: 100326, guid: 8f0565f23a2b58541a475bd3c1393052, type: 3}
      propertyPath: m_Name
      value: unitychan
      objectReference: {fileID: 0}
    - target: {fileID: 100326, guid: 8f0565f23a2b58541a475bd3c1393052, type: 3}
      propertyPath: m_Layer
      value: 9
      objectReference: {fileID: 0}
    - target: {fileID: 100328, guid: 8f0565f23a2b58541a475bd3c1393052, type: 3}
      propertyPath: m_Layer
      value: 9
      objectReference: {fileID: 0}
    - target: {fileID: 100330, guid: 8f0565f23a2b58541a475bd3c1393052, type: 3}
      propertyPath: m_Layer
      value: 9
      objectReference: {fileID: 0}
    - target: {fileID: 400020, guid: 8f0565f23a2b58541a475bd3c1393052, type: 3}
      propertyPath: m_LocalRotation.x
      value: 0.002749187
      objectReference: {fileID: 0}
    - target: {fileID: 400020, guid: 8f0565f23a2b58541a475bd3c1393052, type: 3}
      propertyPath: m_LocalRotation.z
      value: 0.0046093804
      objectReference: {fileID: 0}
    - target: {fileID: 400022, guid: 8f0565f23a2b58541a475bd3c1393052, type: 3}
      propertyPath: m_LocalEulerAnglesHint.x
      value: -85.86421
      objectReference: {fileID: 0}
    - target: {fileID: 400022, guid: 8f0565f23a2b58541a475bd3c1393052, type: 3}
      propertyPath: m_LocalEulerAnglesHint.y
      value: -110.01036
      objectReference: {fileID: 0}
    - target: {fileID: 400022, guid: 8f0565f23a2b58541a475bd3c1393052, type: 3}
      propertyPath: m_LocalEulerAnglesHint.z
      value: 109.996155
      objectReference: {fileID: 0}
    - target: {fileID: 400030, guid: 8f0565f23a2b58541a475bd3c1393052, type: 3}
      propertyPath: m_LocalEulerAnglesHint.x
      value: -87.76313
      objectReference: {fileID: 0}
    - target: {fileID: 400030, guid: 8f0565f23a2b58541a475bd3c1393052, type: 3}
      propertyPath: m_LocalEulerAnglesHint.y
      value: 88.68385
      objectReference: {fileID: 0}
    - target: {fileID: 400030, guid: 8f0565f23a2b58541a475bd3c1393052, type: 3}
      propertyPath: m_LocalEulerAnglesHint.z
      value: -85.40345
      objectReference: {fileID: 0}
    - target: {fileID: 400038, guid: 8f0565f23a2b58541a475bd3c1393052, type: 3}
      propertyPath: m_LocalEulerAnglesHint.x
      value: -5.48263
      objectReference: {fileID: 0}
    - target: {fileID: 400038, guid: 8f0565f23a2b58541a475bd3c1393052, type: 3}
      propertyPath: m_LocalEulerAnglesHint.y
      value: -0.45806602
      objectReference: {fileID: 0}
    - target: {fileID: 400038, guid: 8f0565f23a2b58541a475bd3c1393052, type: 3}
      propertyPath: m_LocalEulerAnglesHint.z
      value: 0.37231216
      objectReference: {fileID: 0}
    - target: {fileID: 400046, guid: 8f0565f23a2b58541a475bd3c1393052, type: 3}
      propertyPath: m_LocalEulerAnglesHint.x
      value: 0.37352467
      objectReference: {fileID: 0}
    - target: {fileID: 400046, guid: 8f0565f23a2b58541a475bd3c1393052, type: 3}
      propertyPath: m_LocalEulerAnglesHint.y
      value: -1.9433293
      objectReference: {fileID: 0}
    - target: {fileID: 400046, guid: 8f0565f23a2b58541a475bd3c1393052, type: 3}
      propertyPath: m_LocalEulerAnglesHint.z
      value: -0.30895755
      objectReference: {fileID: 0}
    - target: {fileID: 400054, guid: 8f0565f23a2b58541a475bd3c1393052, type: 3}
      propertyPath: m_LocalEulerAnglesHint.x
      value: -2.9016912
      objectReference: {fileID: 0}
    - target: {fileID: 400054, guid: 8f0565f23a2b58541a475bd3c1393052, type: 3}
      propertyPath: m_LocalEulerAnglesHint.y
      value: -1.2981101
      objectReference: {fileID: 0}
    - target: {fileID: 400054, guid: 8f0565f23a2b58541a475bd3c1393052, type: 3}
      propertyPath: m_LocalEulerAnglesHint.z
      value: 3.0260365
      objectReference: {fileID: 0}
    - target: {fileID: 400082, guid: 8f0565f23a2b58541a475bd3c1393052, type: 3}
      propertyPath: m_LocalEulerAnglesHint.x
      value: 7.030163
      objectReference: {fileID: 0}
    - target: {fileID: 400082, guid: 8f0565f23a2b58541a475bd3c1393052, type: 3}
      propertyPath: m_LocalEulerAnglesHint.y
      value: -13.15674
      objectReference: {fileID: 0}
    - target: {fileID: 400082, guid: 8f0565f23a2b58541a475bd3c1393052, type: 3}
      propertyPath: m_LocalEulerAnglesHint.z
      value: -0.9113058
      objectReference: {fileID: 0}
    - target: {fileID: 400090, guid: 8f0565f23a2b58541a475bd3c1393052, type: 3}
      propertyPath: m_LocalRotation.x
      value: 0.024370983
      objectReference: {fileID: 0}
    - target: {fileID: 400090, guid: 8f0565f23a2b58541a475bd3c1393052, type: 3}
      propertyPath: m_LocalRotation.z
      value: -0.008131705
      objectReference: {fileID: 0}
    - target: {fileID: 400090, guid: 8f0565f23a2b58541a475bd3c1393052, type: 3}
      propertyPath: m_LocalEulerAnglesHint.x
      value: 2.7265344
      objectReference: {fileID: 0}
    - target: {fileID: 400090, guid: 8f0565f23a2b58541a475bd3c1393052, type: 3}
      propertyPath: m_LocalEulerAnglesHint.y
      value: -7.5995693
      objectReference: {fileID: 0}
    - target: {fileID: 400090, guid: 8f0565f23a2b58541a475bd3c1393052, type: 3}
      propertyPath: m_LocalEulerAnglesHint.z
      value: -1.1172279
      objectReference: {fileID: 0}
    - target: {fileID: 400098, guid: 8f0565f23a2b58541a475bd3c1393052, type: 3}
      propertyPath: m_LocalRotation.x
      value: -0.01420847
      objectReference: {fileID: 0}
    - target: {fileID: 400098, guid: 8f0565f23a2b58541a475bd3c1393052, type: 3}
      propertyPath: m_LocalRotation.z
      value: -0.017708754
      objectReference: {fileID: 0}
    - target: {fileID: 400098, guid: 8f0565f23a2b58541a475bd3c1393052, type: 3}
      propertyPath: m_LocalEulerAnglesHint.x
      value: -1.6476907
      objectReference: {fileID: 0}
    - target: {fileID: 400098, guid: 8f0565f23a2b58541a475bd3c1393052, type: 3}
      propertyPath: m_LocalEulerAnglesHint.y
      value: -0.9213751
      objectReference: {fileID: 0}
    - target: {fileID: 400098, guid: 8f0565f23a2b58541a475bd3c1393052, type: 3}
      propertyPath: m_LocalEulerAnglesHint.z
      value: -2.0107737
      objectReference: {fileID: 0}
    - target: {fileID: 400106, guid: 8f0565f23a2b58541a475bd3c1393052, type: 3}
      propertyPath: m_LocalEulerAnglesHint.x
      value: 1.419357
      objectReference: {fileID: 0}
    - target: {fileID: 400106, guid: 8f0565f23a2b58541a475bd3c1393052, type: 3}
      propertyPath: m_LocalEulerAnglesHint.y
      value: -4.9576836
      objectReference: {fileID: 0}
    - target: {fileID: 400106, guid: 8f0565f23a2b58541a475bd3c1393052, type: 3}
      propertyPath: m_LocalEulerAnglesHint.z
      value: -0.43401852
      objectReference: {fileID: 0}
    - target: {fileID: 400114, guid: 8f0565f23a2b58541a475bd3c1393052, type: 3}
      propertyPath: m_LocalEulerAnglesHint.x
      value: 10.956956
      objectReference: {fileID: 0}
    - target: {fileID: 400114, guid: 8f0565f23a2b58541a475bd3c1393052, type: 3}
      propertyPath: m_LocalEulerAnglesHint.y
      value: -2.6940699
      objectReference: {fileID: 0}
    - target: {fileID: 400114, guid: 8f0565f23a2b58541a475bd3c1393052, type: 3}
      propertyPath: m_LocalEulerAnglesHint.z
      value: -8.202237
      objectReference: {fileID: 0}
    - target: {fileID: 400124, guid: 8f0565f23a2b58541a475bd3c1393052, type: 3}
      propertyPath: m_LocalRotation.x
      value: 0.00007596613
      objectReference: {fileID: 0}
    - target: {fileID: 400124, guid: 8f0565f23a2b58541a475bd3c1393052, type: 3}
      propertyPath: m_LocalRotation.y
      value: -0.0017746092
      objectReference: {fileID: 0}
    - target: {fileID: 400124, guid: 8f0565f23a2b58541a475bd3c1393052, type: 3}
      propertyPath: m_LocalRotation.z
      value: -0.04276638
      objectReference: {fileID: 0}
    - target: {fileID: 400124, guid: 8f0565f23a2b58541a475bd3c1393052, type: 3}
      propertyPath: m_LocalPosition.x
      value: -0.022713358
      objectReference: {fileID: 0}
    - target: {fileID: 400124, guid: 8f0565f23a2b58541a475bd3c1393052, type: 3}
      propertyPath: m_LocalPosition.y
      value: 0.008181498
      objectReference: {fileID: 0}
    - target: {fileID: 400124, guid: 8f0565f23a2b58541a475bd3c1393052, type: 3}
      propertyPath: m_LocalPosition.z
      value: -0.00008069822
      objectReference: {fileID: 0}
    - target: {fileID: 400156, guid: 8f0565f23a2b58541a475bd3c1393052, type: 3}
      propertyPath: m_LocalEulerAnglesHint.x
      value: 4.058836
      objectReference: {fileID: 0}
    - target: {fileID: 400156, guid: 8f0565f23a2b58541a475bd3c1393052, type: 3}
      propertyPath: m_LocalEulerAnglesHint.y
      value: 164.00981
      objectReference: {fileID: 0}
    - target: {fileID: 400156, guid: 8f0565f23a2b58541a475bd3c1393052, type: 3}
      propertyPath: m_LocalEulerAnglesHint.z
      value: 24.646935
      objectReference: {fileID: 0}
    - target: {fileID: 400158, guid: 8f0565f23a2b58541a475bd3c1393052, type: 3}
      propertyPath: m_LocalEulerAnglesHint.x
      value: 0.8373785
      objectReference: {fileID: 0}
    - target: {fileID: 400158, guid: 8f0565f23a2b58541a475bd3c1393052, type: 3}
      propertyPath: m_LocalEulerAnglesHint.y
      value: 7.0454593
      objectReference: {fileID: 0}
    - target: {fileID: 400158, guid: 8f0565f23a2b58541a475bd3c1393052, type: 3}
      propertyPath: m_LocalEulerAnglesHint.z
      value: 6.3802013
      objectReference: {fileID: 0}
    - target: {fileID: 400162, guid: 8f0565f23a2b58541a475bd3c1393052, type: 3}
      propertyPath: m_LocalEulerAnglesHint.x
      value: -4.844401
      objectReference: {fileID: 0}
    - target: {fileID: 400162, guid: 8f0565f23a2b58541a475bd3c1393052, type: 3}
      propertyPath: m_LocalEulerAnglesHint.y
      value: -7.0878253
      objectReference: {fileID: 0}
    - target: {fileID: 400162, guid: 8f0565f23a2b58541a475bd3c1393052, type: 3}
      propertyPath: m_LocalEulerAnglesHint.z
      value: 163.1854
      objectReference: {fileID: 0}
    - target: {fileID: 400164, guid: 8f0565f23a2b58541a475bd3c1393052, type: 3}
      propertyPath: m_LocalEulerAnglesHint.x
      value: 0.14179578
      objectReference: {fileID: 0}
    - target: {fileID: 400164, guid: 8f0565f23a2b58541a475bd3c1393052, type: 3}
      propertyPath: m_LocalEulerAnglesHint.y
      value: 1.0944813
      objectReference: {fileID: 0}
    - target: {fileID: 400164, guid: 8f0565f23a2b58541a475bd3c1393052, type: 3}
      propertyPath: m_LocalEulerAnglesHint.z
      value: -6.1854415
      objectReference: {fileID: 0}
    - target: {fileID: 400166, guid: 8f0565f23a2b58541a475bd3c1393052, type: 3}
      propertyPath: m_LocalEulerAnglesHint.x
      value: 0.061644845
      objectReference: {fileID: 0}
    - target: {fileID: 400166, guid: 8f0565f23a2b58541a475bd3c1393052, type: 3}
      propertyPath: m_LocalEulerAnglesHint.y
      value: 3.5599747
      objectReference: {fileID: 0}
    - target: {fileID: 400166, guid: 8f0565f23a2b58541a475bd3c1393052, type: 3}
      propertyPath: m_LocalEulerAnglesHint.z
      value: -8.198572
      objectReference: {fileID: 0}
    - target: {fileID: 400168, guid: 8f0565f23a2b58541a475bd3c1393052, type: 3}
      propertyPath: m_LocalEulerAnglesHint.x
      value: 0.7590799
      objectReference: {fileID: 0}
    - target: {fileID: 400168, guid: 8f0565f23a2b58541a475bd3c1393052, type: 3}
      propertyPath: m_LocalEulerAnglesHint.y
      value: -4.27782
      objectReference: {fileID: 0}
    - target: {fileID: 400168, guid: 8f0565f23a2b58541a475bd3c1393052, type: 3}
      propertyPath: m_LocalEulerAnglesHint.z
      value: -9.604784
      objectReference: {fileID: 0}
    - target: {fileID: 400170, guid: 8f0565f23a2b58541a475bd3c1393052, type: 3}
      propertyPath: m_LocalEulerAnglesHint.x
      value: -0.078951314
      objectReference: {fileID: 0}
    - target: {fileID: 400170, guid: 8f0565f23a2b58541a475bd3c1393052, type: 3}
      propertyPath: m_LocalEulerAnglesHint.y
      value: -15.3112545
      objectReference: {fileID: 0}
    - target: {fileID: 400170, guid: 8f0565f23a2b58541a475bd3c1393052, type: 3}
      propertyPath: m_LocalEulerAnglesHint.z
      value: -2.402849
      objectReference: {fileID: 0}
    - target: {fileID: 400172, guid: 8f0565f23a2b58541a475bd3c1393052, type: 3}
      propertyPath: m_LocalEulerAnglesHint.x
      value: -0.8905283
      objectReference: {fileID: 0}
    - target: {fileID: 400172, guid: 8f0565f23a2b58541a475bd3c1393052, type: 3}
      propertyPath: m_LocalEulerAnglesHint.y
      value: -9.095122
      objectReference: {fileID: 0}
    - target: {fileID: 400172, guid: 8f0565f23a2b58541a475bd3c1393052, type: 3}
      propertyPath: m_LocalEulerAnglesHint.z
      value: 1.9031391
      objectReference: {fileID: 0}
    - target: {fileID: 400174, guid: 8f0565f23a2b58541a475bd3c1393052, type: 3}
      propertyPath: m_LocalEulerAnglesHint.x
      value: -0.36270487
      objectReference: {fileID: 0}
    - target: {fileID: 400174, guid: 8f0565f23a2b58541a475bd3c1393052, type: 3}
      propertyPath: m_LocalEulerAnglesHint.y
      value: -5.7185893
      objectReference: {fileID: 0}
    - target: {fileID: 400174, guid: 8f0565f23a2b58541a475bd3c1393052, type: 3}
      propertyPath: m_LocalEulerAnglesHint.z
      value: 1.1460226
      objectReference: {fileID: 0}
    - target: {fileID: 400176, guid: 8f0565f23a2b58541a475bd3c1393052, type: 3}
      propertyPath: m_LocalEulerAnglesHint.x
      value: 1.5547814
      objectReference: {fileID: 0}
    - target: {fileID: 400176, guid: 8f0565f23a2b58541a475bd3c1393052, type: 3}
      propertyPath: m_LocalEulerAnglesHint.y
      value: 28.478212
      objectReference: {fileID: 0}
    - target: {fileID: 400176, guid: 8f0565f23a2b58541a475bd3c1393052, type: 3}
      propertyPath: m_LocalEulerAnglesHint.z
      value: 23.679062
      objectReference: {fileID: 0}
    - target: {fileID: 400178, guid: 8f0565f23a2b58541a475bd3c1393052, type: 3}
      propertyPath: m_LocalEulerAnglesHint.x
      value: 41.52554
      objectReference: {fileID: 0}
    - target: {fileID: 400178, guid: 8f0565f23a2b58541a475bd3c1393052, type: 3}
      propertyPath: m_LocalEulerAnglesHint.y
      value: 89.73399
      objectReference: {fileID: 0}
    - target: {fileID: 400178, guid: 8f0565f23a2b58541a475bd3c1393052, type: 3}
      propertyPath: m_LocalEulerAnglesHint.z
      value: 60.20863
      objectReference: {fileID: 0}
    - target: {fileID: 400180, guid: 8f0565f23a2b58541a475bd3c1393052, type: 3}
      propertyPath: m_LocalEulerAnglesHint.x
      value: -54.686302
      objectReference: {fileID: 0}
    - target: {fileID: 400180, guid: 8f0565f23a2b58541a475bd3c1393052, type: 3}
      propertyPath: m_LocalEulerAnglesHint.y
      value: -162.1114
      objectReference: {fileID: 0}
    - target: {fileID: 400180, guid: 8f0565f23a2b58541a475bd3c1393052, type: 3}
      propertyPath: m_LocalEulerAnglesHint.z
      value: 158.07628
      objectReference: {fileID: 0}
    - target: {fileID: 400188, guid: 8f0565f23a2b58541a475bd3c1393052, type: 3}
      propertyPath: m_LocalEulerAnglesHint.x
      value: -6.6579843
      objectReference: {fileID: 0}
    - target: {fileID: 400188, guid: 8f0565f23a2b58541a475bd3c1393052, type: 3}
      propertyPath: m_LocalEulerAnglesHint.y
      value: 172.35039
      objectReference: {fileID: 0}
    - target: {fileID: 400188, guid: 8f0565f23a2b58541a475bd3c1393052, type: 3}
      propertyPath: m_LocalEulerAnglesHint.z
      value: -18.807045
      objectReference: {fileID: 0}
    - target: {fileID: 400190, guid: 8f0565f23a2b58541a475bd3c1393052, type: 3}
      propertyPath: m_LocalEulerAnglesHint.x
      value: -0.5218583
      objectReference: {fileID: 0}
    - target: {fileID: 400190, guid: 8f0565f23a2b58541a475bd3c1393052, type: 3}
      propertyPath: m_LocalEulerAnglesHint.y
      value: 3.8983138
      objectReference: {fileID: 0}
    - target: {fileID: 400190, guid: 8f0565f23a2b58541a475bd3c1393052, type: 3}
      propertyPath: m_LocalEulerAnglesHint.z
      value: 2.3584402
      objectReference: {fileID: 0}
    - target: {fileID: 400194, guid: 8f0565f23a2b58541a475bd3c1393052, type: 3}
      propertyPath: m_LocalRotation.y
      value: 0.0061853616
      objectReference: {fileID: 0}
    - target: {fileID: 400194, guid: 8f0565f23a2b58541a475bd3c1393052, type: 3}
      propertyPath: m_LocalRotation.w
      value: 0.11948778
      objectReference: {fileID: 0}
    - target: {fileID: 400194, guid: 8f0565f23a2b58541a475bd3c1393052, type: 3}
      propertyPath: m_LocalEulerAnglesHint.x
      value: -3.0891986
      objectReference: {fileID: 0}
    - target: {fileID: 400194, guid: 8f0565f23a2b58541a475bd3c1393052, type: 3}
      propertyPath: m_LocalEulerAnglesHint.y
      value: -8.8737545
      objectReference: {fileID: 0}
    - target: {fileID: 400194, guid: 8f0565f23a2b58541a475bd3c1393052, type: 3}
      propertyPath: m_LocalEulerAnglesHint.z
      value: 158.97896
      objectReference: {fileID: 0}
    - target: {fileID: 400196, guid: 8f0565f23a2b58541a475bd3c1393052, type: 3}
      propertyPath: m_LocalEulerAnglesHint.x
      value: 0.22353414
      objectReference: {fileID: 0}
    - target: {fileID: 400196, guid: 8f0565f23a2b58541a475bd3c1393052, type: 3}
      propertyPath: m_LocalEulerAnglesHint.y
      value: -6.3258305
      objectReference: {fileID: 0}
    - target: {fileID: 400196, guid: 8f0565f23a2b58541a475bd3c1393052, type: 3}
      propertyPath: m_LocalEulerAnglesHint.z
      value: 14.397175
      objectReference: {fileID: 0}
    - target: {fileID: 400200, guid: 8f0565f23a2b58541a475bd3c1393052, type: 3}
      propertyPath: m_LocalEulerAnglesHint.x
      value: -16.98806
      objectReference: {fileID: 0}
    - target: {fileID: 400200, guid: 8f0565f23a2b58541a475bd3c1393052, type: 3}
      propertyPath: m_LocalEulerAnglesHint.y
      value: -21.260895
      objectReference: {fileID: 0}
    - target: {fileID: 400200, guid: 8f0565f23a2b58541a475bd3c1393052, type: 3}
      propertyPath: m_LocalEulerAnglesHint.z
      value: -0.35032654
      objectReference: {fileID: 0}
    - target: {fileID: 400204, guid: 8f0565f23a2b58541a475bd3c1393052, type: 3}
      propertyPath: m_LocalEulerAnglesHint.x
      value: -77.94656
      objectReference: {fileID: 0}
    - target: {fileID: 400204, guid: 8f0565f23a2b58541a475bd3c1393052, type: 3}
      propertyPath: m_LocalEulerAnglesHint.y
      value: -13.722794
      objectReference: {fileID: 0}
    - target: {fileID: 400204, guid: 8f0565f23a2b58541a475bd3c1393052, type: 3}
      propertyPath: m_LocalEulerAnglesHint.z
      value: 140.78693
      objectReference: {fileID: 0}
    - target: {fileID: 400208, guid: 8f0565f23a2b58541a475bd3c1393052, type: 3}
      propertyPath: m_LocalEulerAnglesHint.x
      value: 10.414169
      objectReference: {fileID: 0}
    - target: {fileID: 400208, guid: 8f0565f23a2b58541a475bd3c1393052, type: 3}
      propertyPath: m_LocalEulerAnglesHint.y
      value: 172.10188
      objectReference: {fileID: 0}
    - target: {fileID: 400208, guid: 8f0565f23a2b58541a475bd3c1393052, type: 3}
      propertyPath: m_LocalEulerAnglesHint.z
      value: 158.18863
      objectReference: {fileID: 0}
    - target: {fileID: 400212, guid: 8f0565f23a2b58541a475bd3c1393052, type: 3}
      propertyPath: m_LocalEulerAnglesHint.x
      value: 62.306976
      objectReference: {fileID: 0}
    - target: {fileID: 400212, guid: 8f0565f23a2b58541a475bd3c1393052, type: 3}
      propertyPath: m_LocalEulerAnglesHint.y
      value: 24.517326
      objectReference: {fileID: 0}
    - target: {fileID: 400212, guid: 8f0565f23a2b58541a475bd3c1393052, type: 3}
      propertyPath: m_LocalEulerAnglesHint.z
      value: 24.213448
      objectReference: {fileID: 0}
    - target: {fileID: 400216, guid: 8f0565f23a2b58541a475bd3c1393052, type: 3}
      propertyPath: m_LocalEulerAnglesHint.x
      value: 0.48930287
      objectReference: {fileID: 0}
    - target: {fileID: 400216, guid: 8f0565f23a2b58541a475bd3c1393052, type: 3}
      propertyPath: m_LocalEulerAnglesHint.y
      value: 5.123282
      objectReference: {fileID: 0}
    - target: {fileID: 400216, guid: 8f0565f23a2b58541a475bd3c1393052, type: 3}
      propertyPath: m_LocalEulerAnglesHint.z
      value: -9.99871
      objectReference: {fileID: 0}
    - target: {fileID: 400220, guid: 8f0565f23a2b58541a475bd3c1393052, type: 3}
      propertyPath: m_LocalEulerAnglesHint.x
      value: -0.034257583
      objectReference: {fileID: 0}
    - target: {fileID: 400220, guid: 8f0565f23a2b58541a475bd3c1393052, type: 3}
      propertyPath: m_LocalEulerAnglesHint.y
      value: -0.84132415
      objectReference: {fileID: 0}
    - target: {fileID: 400220, guid: 8f0565f23a2b58541a475bd3c1393052, type: 3}
      propertyPath: m_LocalEulerAnglesHint.z
      value: -14.301323
      objectReference: {fileID: 0}
    - target: {fileID: 400224, guid: 8f0565f23a2b58541a475bd3c1393052, type: 3}
      propertyPath: m_LocalEulerAnglesHint.x
      value: -87.21926
      objectReference: {fileID: 0}
    - target: {fileID: 400224, guid: 8f0565f23a2b58541a475bd3c1393052, type: 3}
      propertyPath: m_LocalEulerAnglesHint.y
      value: -80.00557
      objectReference: {fileID: 0}
    - target: {fileID: 400224, guid: 8f0565f23a2b58541a475bd3c1393052, type: 3}
      propertyPath: m_LocalEulerAnglesHint.z
      value: -120.24069
      objectReference: {fileID: 0}
    - target: {fileID: 400228, guid: 8f0565f23a2b58541a475bd3c1393052, type: 3}
      propertyPath: m_LocalEulerAnglesHint.x
      value: -84.33801
      objectReference: {fileID: 0}
    - target: {fileID: 400228, guid: 8f0565f23a2b58541a475bd3c1393052, type: 3}
      propertyPath: m_LocalEulerAnglesHint.y
      value: 89.734116
      objectReference: {fileID: 0}
    - target: {fileID: 400228, guid: 8f0565f23a2b58541a475bd3c1393052, type: 3}
      propertyPath: m_LocalEulerAnglesHint.z
      value: -0.32095107
      objectReference: {fileID: 0}
    - target: {fileID: 400236, guid: 8f0565f23a2b58541a475bd3c1393052, type: 3}
      propertyPath: m_LocalEulerAnglesHint.x
      value: 0.5419016
      objectReference: {fileID: 0}
    - target: {fileID: 400236, guid: 8f0565f23a2b58541a475bd3c1393052, type: 3}
      propertyPath: m_LocalEulerAnglesHint.y
      value: -162.32765
      objectReference: {fileID: 0}
    - target: {fileID: 400236, guid: 8f0565f23a2b58541a475bd3c1393052, type: 3}
      propertyPath: m_LocalEulerAnglesHint.z
      value: 26.030277
      objectReference: {fileID: 0}
    - target: {fileID: 400238, guid: 8f0565f23a2b58541a475bd3c1393052, type: 3}
      propertyPath: m_LocalEulerAnglesHint.x
      value: -0.8280123
      objectReference: {fileID: 0}
    - target: {fileID: 400238, guid: 8f0565f23a2b58541a475bd3c1393052, type: 3}
      propertyPath: m_LocalEulerAnglesHint.y
      value: -7.128774
      objectReference: {fileID: 0}
    - target: {fileID: 400238, guid: 8f0565f23a2b58541a475bd3c1393052, type: 3}
      propertyPath: m_LocalEulerAnglesHint.z
      value: 6.3811865
      objectReference: {fileID: 0}
    - target: {fileID: 400242, guid: 8f0565f23a2b58541a475bd3c1393052, type: 3}
      propertyPath: m_LocalEulerAnglesHint.x
      value: 19.824368
      objectReference: {fileID: 0}
    - target: {fileID: 400242, guid: 8f0565f23a2b58541a475bd3c1393052, type: 3}
      propertyPath: m_LocalEulerAnglesHint.y
      value: 9.196617
      objectReference: {fileID: 0}
    - target: {fileID: 400242, guid: 8f0565f23a2b58541a475bd3c1393052, type: 3}
      propertyPath: m_LocalEulerAnglesHint.z
      value: 162.5986
      objectReference: {fileID: 0}
    - target: {fileID: 400244, guid: 8f0565f23a2b58541a475bd3c1393052, type: 3}
      propertyPath: m_LocalEulerAnglesHint.x
      value: 0.11190842
      objectReference: {fileID: 0}
    - target: {fileID: 400244, guid: 8f0565f23a2b58541a475bd3c1393052, type: 3}
      propertyPath: m_LocalEulerAnglesHint.y
      value: 3.5039682
      objectReference: {fileID: 0}
    - target: {fileID: 400244, guid: 8f0565f23a2b58541a475bd3c1393052, type: 3}
      propertyPath: m_LocalEulerAnglesHint.z
      value: -4.788215
      objectReference: {fileID: 0}
    - target: {fileID: 400246, guid: 8f0565f23a2b58541a475bd3c1393052, type: 3}
      propertyPath: m_LocalEulerAnglesHint.x
      value: 0.36528426
      objectReference: {fileID: 0}
    - target: {fileID: 400246, guid: 8f0565f23a2b58541a475bd3c1393052, type: 3}
      propertyPath: m_LocalEulerAnglesHint.y
      value: 2.7427201
      objectReference: {fileID: 0}
    - target: {fileID: 400246, guid: 8f0565f23a2b58541a475bd3c1393052, type: 3}
      propertyPath: m_LocalEulerAnglesHint.z
      value: -4.665041
      objectReference: {fileID: 0}
    - target: {fileID: 400248, guid: 8f0565f23a2b58541a475bd3c1393052, type: 3}
      propertyPath: m_LocalEulerAnglesHint.x
      value: -0.25170878
      objectReference: {fileID: 0}
    - target: {fileID: 400248, guid: 8f0565f23a2b58541a475bd3c1393052, type: 3}
      propertyPath: m_LocalEulerAnglesHint.y
      value: 9.726994
      objectReference: {fileID: 0}
    - target: {fileID: 400248, guid: 8f0565f23a2b58541a475bd3c1393052, type: 3}
      propertyPath: m_LocalEulerAnglesHint.z
      value: -4.968424
      objectReference: {fileID: 0}
    - target: {fileID: 400250, guid: 8f0565f23a2b58541a475bd3c1393052, type: 3}
      propertyPath: m_LocalEulerAnglesHint.x
      value: -0.36142337
      objectReference: {fileID: 0}
    - target: {fileID: 400250, guid: 8f0565f23a2b58541a475bd3c1393052, type: 3}
      propertyPath: m_LocalEulerAnglesHint.y
      value: 14.233374
      objectReference: {fileID: 0}
    - target: {fileID: 400250, guid: 8f0565f23a2b58541a475bd3c1393052, type: 3}
      propertyPath: m_LocalEulerAnglesHint.z
      value: -0.14078635
      objectReference: {fileID: 0}
    - target: {fileID: 400252, guid: 8f0565f23a2b58541a475bd3c1393052, type: 3}
      propertyPath: m_LocalEulerAnglesHint.x
      value: 0.28393283
      objectReference: {fileID: 0}
    - target: {fileID: 400252, guid: 8f0565f23a2b58541a475bd3c1393052, type: 3}
      propertyPath: m_LocalEulerAnglesHint.y
      value: 0.01409626
      objectReference: {fileID: 0}
    - target: {fileID: 400252, guid: 8f0565f23a2b58541a475bd3c1393052, type: 3}
      propertyPath: m_LocalEulerAnglesHint.z
      value: -3.493381
      objectReference: {fileID: 0}
    - target: {fileID: 400254, guid: 8f0565f23a2b58541a475bd3c1393052, type: 3}
      propertyPath: m_LocalEulerAnglesHint.x
      value: -0.15714432
      objectReference: {fileID: 0}
    - target: {fileID: 400254, guid: 8f0565f23a2b58541a475bd3c1393052, type: 3}
      propertyPath: m_LocalEulerAnglesHint.y
      value: -2.084143
      objectReference: {fileID: 0}
    - target: {fileID: 400254, guid: 8f0565f23a2b58541a475bd3c1393052, type: 3}
      propertyPath: m_LocalEulerAnglesHint.z
      value: -5.396603
      objectReference: {fileID: 0}
    - target: {fileID: 400256, guid: 8f0565f23a2b58541a475bd3c1393052, type: 3}
      propertyPath: m_LocalEulerAnglesHint.x
      value: -5.7793803
      objectReference: {fileID: 0}
    - target: {fileID: 400256, guid: 8f0565f23a2b58541a475bd3c1393052, type: 3}
      propertyPath: m_LocalEulerAnglesHint.y
      value: -26.81726
      objectReference: {fileID: 0}
    - target: {fileID: 400256, guid: 8f0565f23a2b58541a475bd3c1393052, type: 3}
      propertyPath: m_LocalEulerAnglesHint.z
      value: 25.894089
      objectReference: {fileID: 0}
    - target: {fileID: 400258, guid: 8f0565f23a2b58541a475bd3c1393052, type: 3}
      propertyPath: m_LocalEulerAnglesHint.x
      value: -37.277573
      objectReference: {fileID: 0}
    - target: {fileID: 400258, guid: 8f0565f23a2b58541a475bd3c1393052, type: 3}
      propertyPath: m_LocalEulerAnglesHint.y
      value: -83.63849
      objectReference: {fileID: 0}
    - target: {fileID: 400258, guid: 8f0565f23a2b58541a475bd3c1393052, type: 3}
      propertyPath: m_LocalEulerAnglesHint.z
      value: 66.35771
      objectReference: {fileID: 0}
    - target: {fileID: 400260, guid: 8f0565f23a2b58541a475bd3c1393052, type: 3}
      propertyPath: m_LocalEulerAnglesHint.x
      value: 28.721563
      objectReference: {fileID: 0}
    - target: {fileID: 400260, guid: 8f0565f23a2b58541a475bd3c1393052, type: 3}
      propertyPath: m_LocalEulerAnglesHint.y
      value: -84.272316
      objectReference: {fileID: 0}
    - target: {fileID: 400260, guid: 8f0565f23a2b58541a475bd3c1393052, type: 3}
      propertyPath: m_LocalEulerAnglesHint.z
      value: 90.16554
      objectReference: {fileID: 0}
    - target: {fileID: 400268, guid: 8f0565f23a2b58541a475bd3c1393052, type: 3}
      propertyPath: m_LocalEulerAnglesHint.x
      value: 8.293233
      objectReference: {fileID: 0}
    - target: {fileID: 400268, guid: 8f0565f23a2b58541a475bd3c1393052, type: 3}
      propertyPath: m_LocalEulerAnglesHint.y
      value: -167.2289
      objectReference: {fileID: 0}
    - target: {fileID: 400268, guid: 8f0565f23a2b58541a475bd3c1393052, type: 3}
      propertyPath: m_LocalEulerAnglesHint.z
      value: -2.5208488
      objectReference: {fileID: 0}
    - target: {fileID: 400270, guid: 8f0565f23a2b58541a475bd3c1393052, type: 3}
      propertyPath: m_LocalEulerAnglesHint.x
      value: 0.28888637
      objectReference: {fileID: 0}
    - target: {fileID: 400270, guid: 8f0565f23a2b58541a475bd3c1393052, type: 3}
      propertyPath: m_LocalEulerAnglesHint.y
      value: -3.8956037
      objectReference: {fileID: 0}
    - target: {fileID: 400270, guid: 8f0565f23a2b58541a475bd3c1393052, type: 3}
      propertyPath: m_LocalEulerAnglesHint.z
      value: 2.4951549
      objectReference: {fileID: 0}
    - target: {fileID: 400274, guid: 8f0565f23a2b58541a475bd3c1393052, type: 3}
      propertyPath: m_LocalEulerAnglesHint.x
      value: 17.466892
      objectReference: {fileID: 0}
    - target: {fileID: 400274, guid: 8f0565f23a2b58541a475bd3c1393052, type: 3}
      propertyPath: m_LocalEulerAnglesHint.y
      value: 16.415127
      objectReference: {fileID: 0}
    - target: {fileID: 400274, guid: 8f0565f23a2b58541a475bd3c1393052, type: 3}
      propertyPath: m_LocalEulerAnglesHint.z
      value: -14.110368
      objectReference: {fileID: 0}
    - target: {fileID: 400276, guid: 8f0565f23a2b58541a475bd3c1393052, type: 3}
      propertyPath: m_LocalEulerAnglesHint.x
      value: 1.3819467
      objectReference: {fileID: 0}
    - target: {fileID: 400276, guid: 8f0565f23a2b58541a475bd3c1393052, type: 3}
      propertyPath: m_LocalEulerAnglesHint.y
      value: -5.5895004
      objectReference: {fileID: 0}
    - target: {fileID: 400276, guid: 8f0565f23a2b58541a475bd3c1393052, type: 3}
      propertyPath: m_LocalEulerAnglesHint.z
      value: 14.363081
      objectReference: {fileID: 0}
    - target: {fileID: 400280, guid: 8f0565f23a2b58541a475bd3c1393052, type: 3}
      propertyPath: m_LocalEulerAnglesHint.x
      value: 0.8659528
      objectReference: {fileID: 0}
    - target: {fileID: 400280, guid: 8f0565f23a2b58541a475bd3c1393052, type: 3}
      propertyPath: m_LocalEulerAnglesHint.y
      value: 1.8686117
      objectReference: {fileID: 0}
    - target: {fileID: 400280, guid: 8f0565f23a2b58541a475bd3c1393052, type: 3}
      propertyPath: m_LocalEulerAnglesHint.z
      value: -13.197102
      objectReference: {fileID: 0}
    - target: {fileID: 400284, guid: 8f0565f23a2b58541a475bd3c1393052, type: 3}
      propertyPath: m_LocalEulerAnglesHint.x
      value: 87.634705
      objectReference: {fileID: 0}
    - target: {fileID: 400284, guid: 8f0565f23a2b58541a475bd3c1393052, type: 3}
      propertyPath: m_LocalEulerAnglesHint.y
      value: -65.986374
      objectReference: {fileID: 0}
    - target: {fileID: 400284, guid: 8f0565f23a2b58541a475bd3c1393052, type: 3}
      propertyPath: m_LocalEulerAnglesHint.z
      value: -76.393166
      objectReference: {fileID: 0}
    - target: {fileID: 400288, guid: 8f0565f23a2b58541a475bd3c1393052, type: 3}
      propertyPath: m_LocalEulerAnglesHint.x
      value: 0.06648499
      objectReference: {fileID: 0}
    - target: {fileID: 400288, guid: 8f0565f23a2b58541a475bd3c1393052, type: 3}
      propertyPath: m_LocalEulerAnglesHint.y
      value: 179.04591
      objectReference: {fileID: 0}
    - target: {fileID: 400288, guid: 8f0565f23a2b58541a475bd3c1393052, type: 3}
      propertyPath: m_LocalEulerAnglesHint.z
      value: 166.83774
      objectReference: {fileID: 0}
    - target: {fileID: 400292, guid: 8f0565f23a2b58541a475bd3c1393052, type: 3}
      propertyPath: m_LocalEulerAnglesHint.x
      value: -88.36475
      objectReference: {fileID: 0}
    - target: {fileID: 400292, guid: 8f0565f23a2b58541a475bd3c1393052, type: 3}
      propertyPath: m_LocalEulerAnglesHint.y
      value: -138.3988
      objectReference: {fileID: 0}
    - target: {fileID: 400292, guid: 8f0565f23a2b58541a475bd3c1393052, type: 3}
      propertyPath: m_LocalEulerAnglesHint.z
      value: 130.09445
      objectReference: {fileID: 0}
    - target: {fileID: 400296, guid: 8f0565f23a2b58541a475bd3c1393052, type: 3}
      propertyPath: m_LocalEulerAnglesHint.x
      value: 0.4893028
      objectReference: {fileID: 0}
    - target: {fileID: 400296, guid: 8f0565f23a2b58541a475bd3c1393052, type: 3}
      propertyPath: m_LocalEulerAnglesHint.y
      value: 5.1232834
      objectReference: {fileID: 0}
    - target: {fileID: 400296, guid: 8f0565f23a2b58541a475bd3c1393052, type: 3}
      propertyPath: m_LocalEulerAnglesHint.z
      value: -9.998711
      objectReference: {fileID: 0}
    - target: {fileID: 400300, guid: 8f0565f23a2b58541a475bd3c1393052, type: 3}
      propertyPath: m_LocalEulerAnglesHint.x
      value: 0.04025198
      objectReference: {fileID: 0}
    - target: {fileID: 400300, guid: 8f0565f23a2b58541a475bd3c1393052, type: 3}
      propertyPath: m_LocalEulerAnglesHint.y
      value: 0.84245914
      objectReference: {fileID: 0}
    - target: {fileID: 400300, guid: 8f0565f23a2b58541a475bd3c1393052, type: 3}
      propertyPath: m_LocalEulerAnglesHint.z
      value: -14.301292
      objectReference: {fileID: 0}
    - target: {fileID: 400304, guid: 8f0565f23a2b58541a475bd3c1393052, type: 3}
      propertyPath: m_LocalEulerAnglesHint.x
      value: 87.21934
      objectReference: {fileID: 0}
    - target: {fileID: 400304, guid: 8f0565f23a2b58541a475bd3c1393052, type: 3}
      propertyPath: m_LocalEulerAnglesHint.y
      value: 80.00545
      objectReference: {fileID: 0}
    - target: {fileID: 400304, guid: 8f0565f23a2b58541a475bd3c1393052, type: 3}
      propertyPath: m_LocalEulerAnglesHint.z
      value: 59.759098
      objectReference: {fileID: 0}
    - target: {fileID: 400326, guid: 8f0565f23a2b58541a475bd3c1393052, type: 3}
      propertyPath: m_LocalPosition.x
      value: 71.398
      objectReference: {fileID: 0}
    - target: {fileID: 400326, guid: 8f0565f23a2b58541a475bd3c1393052, type: 3}
      propertyPath: m_LocalPosition.y
      value: 0.11
      objectReference: {fileID: 0}
    - target: {fileID: 400326, guid: 8f0565f23a2b58541a475bd3c1393052, type: 3}
      propertyPath: m_LocalPosition.z
      value: 128.87093
      objectReference: {fileID: 0}
    - target: {fileID: 400326, guid: 8f0565f23a2b58541a475bd3c1393052, type: 3}
      propertyPath: m_LocalRotation.x
      value: 0
      objectReference: {fileID: 0}
    - target: {fileID: 400326, guid: 8f0565f23a2b58541a475bd3c1393052, type: 3}
      propertyPath: m_LocalRotation.y
      value: 0
      objectReference: {fileID: 0}
    - target: {fileID: 400326, guid: 8f0565f23a2b58541a475bd3c1393052, type: 3}
      propertyPath: m_LocalRotation.z
      value: 0
      objectReference: {fileID: 0}
    - target: {fileID: 400326, guid: 8f0565f23a2b58541a475bd3c1393052, type: 3}
      propertyPath: m_LocalRotation.w
      value: 1
      objectReference: {fileID: 0}
    - target: {fileID: 400326, guid: 8f0565f23a2b58541a475bd3c1393052, type: 3}
      propertyPath: m_RootOrder
      value: 0
      objectReference: {fileID: 0}
    - target: {fileID: 400326, guid: 8f0565f23a2b58541a475bd3c1393052, type: 3}
      propertyPath: m_LocalEulerAnglesHint.x
      value: 0
      objectReference: {fileID: 0}
    - target: {fileID: 400326, guid: 8f0565f23a2b58541a475bd3c1393052, type: 3}
      propertyPath: m_LocalEulerAnglesHint.y
      value: 0
      objectReference: {fileID: 0}
    - target: {fileID: 400326, guid: 8f0565f23a2b58541a475bd3c1393052, type: 3}
      propertyPath: m_LocalEulerAnglesHint.z
      value: 0
      objectReference: {fileID: 0}
    - target: {fileID: 9500000, guid: 8f0565f23a2b58541a475bd3c1393052, type: 3}
      propertyPath: m_Controller
      value: 
      objectReference: {fileID: 9100000, guid: 4baa3cc876b707e44b8445b478319c48, type: 2}
    - target: {fileID: 9500000, guid: 8f0565f23a2b58541a475bd3c1393052, type: 3}
      propertyPath: m_ApplyRootMotion
      value: 1
      objectReference: {fileID: 0}
    - target: {fileID: 13700000, guid: 8f0565f23a2b58541a475bd3c1393052, type: 3}
      propertyPath: m_AABB.m_Center.y
      value: 1.380296
      objectReference: {fileID: 0}
    - target: {fileID: 13700000, guid: 8f0565f23a2b58541a475bd3c1393052, type: 3}
      propertyPath: m_AABB.m_Center.z
      value: 0.075430006
      objectReference: {fileID: 0}
    - target: {fileID: 13700000, guid: 8f0565f23a2b58541a475bd3c1393052, type: 3}
      propertyPath: m_AABB.m_Extent.x
      value: 0.05102
      objectReference: {fileID: 0}
    - target: {fileID: 13700000, guid: 8f0565f23a2b58541a475bd3c1393052, type: 3}
      propertyPath: m_AABB.m_Extent.y
      value: 0.012729228
      objectReference: {fileID: 0}
    - target: {fileID: 13700000, guid: 8f0565f23a2b58541a475bd3c1393052, type: 3}
      propertyPath: m_AABB.m_Extent.z
      value: 0.006349992
      objectReference: {fileID: 0}
    - target: {fileID: 13700000, guid: 8f0565f23a2b58541a475bd3c1393052, type: 3}
      propertyPath: m_DirtyAABB
      value: 0
      objectReference: {fileID: 0}
    - target: {fileID: 13700006, guid: 8f0565f23a2b58541a475bd3c1393052, type: 3}
      propertyPath: m_BlendShapeWeights.Array.size
      value: 7
      objectReference: {fileID: 0}
    - target: {fileID: 13700006, guid: 8f0565f23a2b58541a475bd3c1393052, type: 3}
      propertyPath: m_AABB.m_Center.y
      value: 1.3495715
      objectReference: {fileID: 0}
    - target: {fileID: 13700006, guid: 8f0565f23a2b58541a475bd3c1393052, type: 3}
      propertyPath: m_AABB.m_Center.z
      value: 0.06277
      objectReference: {fileID: 0}
    - target: {fileID: 13700006, guid: 8f0565f23a2b58541a475bd3c1393052, type: 3}
      propertyPath: m_AABB.m_Extent.x
      value: 0.071504995
      objectReference: {fileID: 0}
    - target: {fileID: 13700006, guid: 8f0565f23a2b58541a475bd3c1393052, type: 3}
      propertyPath: m_AABB.m_Extent.y
      value: 0.023665488
      objectReference: {fileID: 0}
    - target: {fileID: 13700006, guid: 8f0565f23a2b58541a475bd3c1393052, type: 3}
      propertyPath: m_AABB.m_Extent.z
      value: 0.011460001
      objectReference: {fileID: 0}
    - target: {fileID: 13700006, guid: 8f0565f23a2b58541a475bd3c1393052, type: 3}
      propertyPath: m_DirtyAABB
      value: 0
      objectReference: {fileID: 0}
    - target: {fileID: 13700008, guid: 8f0565f23a2b58541a475bd3c1393052, type: 3}
      propertyPath: m_BlendShapeWeights.Array.size
      value: 7
      objectReference: {fileID: 0}
    - target: {fileID: 13700008, guid: 8f0565f23a2b58541a475bd3c1393052, type: 3}
      propertyPath: m_AABB.m_Center.y
      value: 1.3556354
      objectReference: {fileID: 0}
    - target: {fileID: 13700008, guid: 8f0565f23a2b58541a475bd3c1393052, type: 3}
      propertyPath: m_AABB.m_Center.z
      value: 0.0608415
      objectReference: {fileID: 0}
    - target: {fileID: 13700008, guid: 8f0565f23a2b58541a475bd3c1393052, type: 3}
      propertyPath: m_AABB.m_Extent.x
      value: 0.076811
      objectReference: {fileID: 0}
    - target: {fileID: 13700008, guid: 8f0565f23a2b58541a475bd3c1393052, type: 3}
      propertyPath: m_AABB.m_Extent.y
      value: 0.041534483
      objectReference: {fileID: 0}
    - target: {fileID: 13700008, guid: 8f0565f23a2b58541a475bd3c1393052, type: 3}
      propertyPath: m_AABB.m_Extent.z
      value: 0.020959504
      objectReference: {fileID: 0}
    - target: {fileID: 13700008, guid: 8f0565f23a2b58541a475bd3c1393052, type: 3}
      propertyPath: m_DirtyAABB
      value: 0
      objectReference: {fileID: 0}
    - target: {fileID: 13700020, guid: 8f0565f23a2b58541a475bd3c1393052, type: 3}
      propertyPath: m_BlendShapeWeights.Array.size
      value: 11
      objectReference: {fileID: 0}
    - target: {fileID: 13700020, guid: 8f0565f23a2b58541a475bd3c1393052, type: 3}
      propertyPath: m_AABB.m_Center.y
      value: 1.3662745
      objectReference: {fileID: 0}
    - target: {fileID: 13700020, guid: 8f0565f23a2b58541a475bd3c1393052, type: 3}
      propertyPath: m_AABB.m_Center.z
      value: 0.0315425
      objectReference: {fileID: 0}
    - target: {fileID: 13700020, guid: 8f0565f23a2b58541a475bd3c1393052, type: 3}
      propertyPath: m_AABB.m_Extent.x
      value: 0.078469
      objectReference: {fileID: 0}
    - target: {fileID: 13700020, guid: 8f0565f23a2b58541a475bd3c1393052, type: 3}
      propertyPath: m_AABB.m_Extent.y
      value: 0.106027484
      objectReference: {fileID: 0}
    - target: {fileID: 13700020, guid: 8f0565f23a2b58541a475bd3c1393052, type: 3}
      propertyPath: m_AABB.m_Extent.z
      value: 0.0553375
      objectReference: {fileID: 0}
    - target: {fileID: 13700020, guid: 8f0565f23a2b58541a475bd3c1393052, type: 3}
      propertyPath: m_DirtyAABB
      value: 0
      objectReference: {fileID: 0}
    m_RemovedComponents: []
  m_SourcePrefab: {fileID: 100100000, guid: 8f0565f23a2b58541a475bd3c1393052, type: 3}
--- !u!1 &5315593489823488646 stripped
GameObject:
  m_CorrespondingSourceObject: {fileID: 100326, guid: 8f0565f23a2b58541a475bd3c1393052,
    type: 3}
  m_PrefabInstance: {fileID: 5315593489823522144}
  m_PrefabAsset: {fileID: 0}
--- !u!1 &5315593489823488898 stripped
GameObject:
  m_CorrespondingSourceObject: {fileID: 100066, guid: 8f0565f23a2b58541a475bd3c1393052,
    type: 3}
  m_PrefabInstance: {fileID: 5315593489823522144}
  m_PrefabAsset: {fileID: 0}
